src/Wave.vcd
$date
     Nov 18, 2009       20:46:36
$end

$version
              SystemC 2.2.0 --- Nov 18 2009 19:55:57
$end

$timescale
     1 ps
$end

$scope module SystemC $end
$var wire    1  aaa  Clk       $end
$var wire   32  aab  cfgdata [31:0]  $end
$var wire    1  aac  cfgenable       $end
$var wire   32  aad  in.east [31:0]  $end
$var wire   32  aae  in.west [31:0]  $end
$var wire   32  aaf  in.north [31:0]  $end
$var wire   32  aag  in.south [31:0]  $end
$var wire   32  aah  out.east [31:0]  $end
$var wire   32  aai  out.west [31:0]  $end
$var wire   32  aaj  out.north [31:0]  $end
$var wire   32  aak  out.south [31:0]  $end
$upscope $end
$enddefinitions  $end

$comment
All initial values are dumped below at time 0 sec = 0 timescale units.
$end

$dumpvars
1aaa
b1001000000001000000000000000000 aab
1aac
b101 aad
b10 aae
b1010 aaf
b111 aag
b0 aah
b0 aai
b0 aaj
b0 aak
$end

#1000
0aaa
0aac

#2000
1aaa
b11 aad
b101 aae
b1001 aaf
b1000 aag
b1111 aah

#3000
0aaa

#4000
1aaa
b111 aad
b1010 aae
b1 aaf
b10 aag
b1100 aah

#5000
0aaa

#6000
1aaa
b100 aad
b1001 aae
b100 aaf
b101 aag
b1000 aah

#7000
0aaa

#8000
1aaa
b111 aad
b110 aae
b100 aag

#9000
0aaa

#10000
1aaa
b11 aad
b111 aae
b1010 aag
b1011 aah

#11000
0aaa

#12000
1aaa
b1 aad
b10 aae
b111 aaf
b111 aag
b111 aah

#13000
0aaa

#14000
1aaa
b11 aad
b110 aae
b110 aaf
b1000 aag
b1000 aah

#15000
0aaa

#16000
1aaa
b1000 aad
b101 aaf
b1 aag
b1001 aah

#17000
0aaa

#18000
1aaa
b1010 aad
b11 aae
b1000 aaf
b110 aag
b1101 aah

#19000
0aaa

#20000
1aaa
b10010000010000000000000000000 aab
1aac
b11 aad
b1001 aae
b111 aag

#21000
0aaa
0aac

#22000
1aaa
b111 aad
b10 aae
b1 aaf
b11 aag
b10000 aaj

#23000
0aaa

#24000
1aaa
b100 aae
b110 aaf
b1001 aag
b101 aaj

#25000
0aaa

#26000
1aaa
b1010 aad
b1010 aae
b1001 aaf
b1 aag
b1101 aaj

#27000
0aaa

#28000
1aaa
b1 aad
b110 aae
b1000 aaf
b100 aag
b1011 aaj

#29000
0aaa

#30000
1aaa
b11 aae
b1 aaf
b1001 aag
b1010 aaj

#31000
0aaa

#32000
1aaa
b1000 aad
b110 aae
b1001 aaf
b1000 aag
b1100 aaj

#33000
0aaa

#34000
1aaa
b100 aaf
b1010 aag
b1110 aaj

#35000
0aaa

#36000
1aaa
b100 aad
b1 aae
b110 aaf
b1 aag
b10000 aaj

#37000
0aaa

#38000
1aaa
b10 aad
b111 aae
b11 aaf
b1001 aag
b10 aaj

#39000
0aaa

#40000
1aaa
b1001000000000010000000000000001 aab
1aac
b1010 aad
b1001 aae
b1000 aaf
b1010 aag

#41000
0aaa
0aac

#42000
1aaa
b1000 aad
b111 aae
b1 aaf
b1001 aag
b10 aai

#43000
0aaa

#44000
1aaa
b10 aad
b1000 aae
b11 aaf
b11 aag
b111 aai

#45000
0aaa

#46000
1aaa
b1010 aad
b100 aae
b1 aaf
b1000 aag
b11111111111111111111111111111111 aai

#47000
0aaa

#48000
1aaa
b1001 aad
b1010 aae
b110 aaf
b110 aag
b1001 aai

#49000
0aaa

#50000
1aaa
b101 aad
b1001 aae
b1001 aag
b11 aai

#51000
0aaa

#52000
1aaa
b1001 aad
b10 aae
b1001 aaf
b1 aag
b11111111111111111111111111111111 aai

#53000
0aaa

#54000
1aaa
b1000 aad
b1000 aag
b0 aai

#55000
0aaa

#56000
1aaa
b1010 aad
b110 aae
b1000 aaf
b11111111111111111111111111111111 aai

#57000
0aaa

#58000
1aaa
b10 aad
b1000 aae
b110 aaf
b100 aag
b10 aai

